{
  "page": 1,
  "per_page": 80,
  "collections": [
    {
      "id": "hqkbl1d",
      "title": "Motivational",
      "description": "",
      "private": false,
      "media_count": 50,
      "photos_count": 43,
      "videos_count": 7
    },
    {
      "id": "lamirvz",
      "title": "Deserts",
      "description": "",
      "private": false,
      "media_count": 81,
      "photos_count": 69,
      "videos_count": 12
    },
    {
      "id": "t6cipk2",
      "title": "Grass",
      "description": "",
      "private": false,
      "media_count": 63,
      "photos_count": 52,
      "videos_count": 11
    },
    {
      "id": "yyc0lfx",
      "title": "Desks",
      "description": "",
      "private": false,
      "media_count": 79,
      "photos_count": 77,
      "videos_count": 2
    },
    {
      "id": "uq9nuzt",
      "title": "Winter Landscapes",
      "description": "",
      "private": false,
      "media_count": 97,
      "photos_count": 97,
      "videos_count": 0
    },
    {
      "id": "cuy17hv",
      "title": "Hygge",
      "description": "That cozy feeling <3",
      "private": false,
      "media_count": 134,
      "photos_count": 116,
      "videos_count": 18
    },
    {
      "id": "xs9vlnz",
      "title": "Pumpkins ðŸŽƒ",
      "description": "",
      "private": false,
      "media_count": 86,
      "photos_count": 78,
      "videos_count": 8
    },
    {
      "id": "kpeic8f",
      "title": "Butterflies",
      "description": "",
      "private": false,
      "media_count": 141,
      "photos_count": 132,
      "videos_count": 9
    },
    {
      "id": "7kmsoc3",
      "title": "Write It Down",
      "description": "",
      "private": false,
      "media_count": 106,
      "photos_count": 89,
      "videos_count": 17
    },
    {
      "id": "g4r3co3",
      "title": "Cooking",
      "description": "",
      "private": false,
      "media_count": 125,
      "photos_count": 108,
      "videos_count": 17
    },
    {
      "id": "5bnimab",
      "title": "Marketing",
      "description": "",
      "private": false,
      "media_count": 63,
      "photos_count": 54,
      "videos_count": 9
    },
    {
      "id": "x61g7hp",
      "title": "Cakes",
      "description": "",
      "private": false,
      "media_count": 102,
      "photos_count": 87,
      "videos_count": 15
    },
    {
      "id": "13avfhr",
      "title": "In Thought",
      "description": "",
      "private": false,
      "media_count": 73,
      "photos_count": 64,
      "videos_count": 9
    },
    {
      "id": "sjwy6vz",
      "title": "Construction",
      "description": "",
      "private": false,
      "media_count": 54,
      "photos_count": 45,
      "videos_count": 9
    },
    {
      "id": "uefplky",
      "title": "Fish",
      "description": "",
      "private": false,
      "media_count": 83,
      "photos_count": 69,
      "videos_count": 14
    },
    {
      "id": "8v50ge9",
      "title": "Party Time",
      "description": "",
      "private": false,
      "media_count": 99,
      "photos_count": 79,
      "videos_count": 20
    },
    {
      "id": "uc8h4mj",
      "title": "Weddings",
      "description": "",
      "private": false,
      "media_count": 114,
      "photos_count": 100,
      "videos_count": 14
    },
    {
      "id": "bylxwg2",
      "title": "Financial",
      "description": "",
      "private": false,
      "media_count": 56,
      "photos_count": 44,
      "videos_count": 12
    },
    {
      "id": "z5wutri",
      "title": "The Sun",
      "description": "",
      "private": false,
      "media_count": 113,
      "photos_count": 97,
      "videos_count": 16
    },
    {
      "id": "wc456qz",
      "title": "Medical",
      "description": "",
      "private": false,
      "media_count": 89,
      "photos_count": 72,
      "videos_count": 17
    },
    {
      "id": "t6hrjnu",
      "title": "Simple Backgrounds",
      "description": "",
      "private": false,
      "media_count": 85,
      "photos_count": 85,
      "videos_count": 0
    },
    {
      "id": "aiaopd4",
      "title": "Antiques",
      "description": "",
      "private": false,
      "media_count": 68,
      "photos_count": 58,
      "videos_count": 10
    },
    {
      "id": "imtmtfz",
      "title": "The Gym",
      "description": "",
      "private": false,
      "media_count": 81,
      "photos_count": 59,
      "videos_count": 22
    },
    {
      "id": "ttzqup3",
      "title": "Living Rooms",
      "description": "",
      "private": false,
      "media_count": 99,
      "photos_count": 86,
      "videos_count": 13
    },
    {
      "id": "coxzweb",
      "title": "Fungi",
      "description": "",
      "private": false,
      "media_count": 80,
      "photos_count": 75,
      "videos_count": 5
    },
    {
      "id": "b5sgybo",
      "title": "Tulips",
      "description": "",
      "private": false,
      "media_count": 108,
      "photos_count": 92,
      "videos_count": 16
    },
    {
      "id": "5oflfdk",
      "title": "New York, New York",
      "description": "It's up to you",
      "private": false,
      "media_count": 78,
      "photos_count": 71,
      "videos_count": 7
    },
    {
      "id": "gyeicaf",
      "title": "Clouds",
      "description": "",
      "private": false,
      "media_count": 115,
      "photos_count": 98,
      "videos_count": 17
    },
    {
      "id": "ldf6ykj",
      "title": "International Tiger Day",
      "description": "",
      "private": false,
      "media_count": 46,
      "photos_count": 43,
      "videos_count": 3
    },
    {
      "id": "vqbvmsm",
      "title": "Hints Of Light",
      "description": "",
      "private": false,
      "media_count": 148,
      "photos_count": 132,
      "videos_count": 16
    },
    {
      "id": "cq3b6cn",
      "title": "Phones",
      "description": "",
      "private": false,
      "media_count": 113,
      "photos_count": 91,
      "videos_count": 22
    },
    {
      "id": "91mwque",
      "title": "Morning Sun",
      "description": "",
      "private": false,
      "media_count": 79,
      "photos_count": 64,
      "videos_count": 15
    },
    {
      "id": "4rawclr",
      "title": "Virus",
      "description": "",
      "private": false,
      "media_count": 40,
      "photos_count": 31,
      "videos_count": 9
    },
    {
      "id": "uhvgflr",
      "title": "Skylines",
      "description": "",
      "private": false,
      "media_count": 91,
      "photos_count": 76,
      "videos_count": 15
    },
    {
      "id": "xxxmtks",
      "title": "Night Time",
      "description": "",
      "private": false,
      "media_count": 127,
      "photos_count": 103,
      "videos_count": 24
    },
    {
      "id": "9jcjkih",
      "title": "Buildings",
      "description": "",
      "private": false,
      "media_count": 114,
      "photos_count": 104,
      "videos_count": 10
    },
    {
      "id": "rxcugbs",
      "title": "Meetings",
      "description": "",
      "private": false,
      "media_count": 70,
      "photos_count": 56,
      "videos_count": 14
    },
    {
      "id": "o20xwnm",
      "title": "Pastel Backgrounds",
      "description": "",
      "private": false,
      "media_count": 129,
      "photos_count": 129,
      "videos_count": 0
    },
    {
      "id": "lbxiwsq",
      "title": "Colour Black",
      "description": "",
      "private": false,
      "media_count": 70,
      "photos_count": 66,
      "videos_count": 4
    },
    {
      "id": "0didn7v",
      "title": "Health",
      "description": "",
      "private": false,
      "media_count": 118,
      "photos_count": 106,
      "videos_count": 12
    },
    {
      "id": "yhm0ftw",
      "title": "Alone",
      "description": "",
      "private": false,
      "media_count": 116,
      "photos_count": 104,
      "videos_count": 12
    },
    {
      "id": "fwxweaj",
      "title": "Laptops",
      "description": "",
      "private": false,
      "media_count": 113,
      "photos_count": 95,
      "videos_count": 18
    },
    {
      "id": "fzvcwie",
      "title": "Happy Birthday",
      "description": "",
      "private": false,
      "media_count": 127,
      "photos_count": 100,
      "videos_count": 27
    },
    {
      "id": "cwgidat",
      "title": "Mountains",
      "description": "",
      "private": false,
      "media_count": 151,
      "photos_count": 124,
      "videos_count": 27
    },
    {
      "id": "h8stntd",
      "title": "Animals",
      "description": "",
      "private": false,
      "media_count": 172,
      "photos_count": 143,
      "videos_count": 29
    },
    {
      "id": "e9sd3rt",
      "title": "Blurred",
      "description": "",
      "private": false,
      "media_count": 135,
      "photos_count": 109,
      "videos_count": 26
    },
    {
      "id": "fpyycnd",
      "title": "Stormy Weather",
      "description": "",
      "private": false,
      "media_count": 90,
      "photos_count": 81,
      "videos_count": 9
    },
    {
      "id": "hospozd",
      "title": "Travel âœˆï¸",
      "description": "",
      "private": false,
      "media_count": 182,
      "photos_count": 153,
      "videos_count": 29
    },
    {
      "id": "vsjdlqy",
      "title": "Space ðŸª âœ¨",
      "description": "",
      "private": false,
      "media_count": 74,
      "photos_count": 43,
      "videos_count": 31
    },
    {
      "id": "6kvxxgj",
      "title": "Pomegranate",
      "description": "",
      "private": false,
      "media_count": 108,
      "photos_count": 92,
      "videos_count": 16
    },
    {
      "id": "iqomw3t",
      "title": "Autumn Videos",
      "description": "",
      "private": false,
      "media_count": 123,
      "photos_count": 0,
      "videos_count": 123
    },
    {
      "id": "uibao6q",
      "title": "Essential Oils",
      "description": "",
      "private": false,
      "media_count": 116,
      "photos_count": 98,
      "videos_count": 18
    },
    {
      "id": "huh82my",
      "title": "Candy Videos",
      "description": "",
      "private": false,
      "media_count": 73,
      "photos_count": 0,
      "videos_count": 73
    },
    {
      "id": "gnlshhc",
      "title": "Wedding Cakes",
      "description": "",
      "private": false,
      "media_count": 67,
      "photos_count": 63,
      "videos_count": 4
    },
    {
      "id": "sf1rygk",
      "title": "Brown Colour Palette",
      "description": "",
      "private": false,
      "media_count": 173,
      "photos_count": 162,
      "videos_count": 11
    },
    {
      "id": "grdcnbs",
      "title": "Palm Tree Videos ðŸŒ´",
      "description": "",
      "private": false,
      "media_count": 56,
      "photos_count": 0,
      "videos_count": 56
    },
    {
      "id": "nvze5o6",
      "title": "Waterfall Videos",
      "description": "",
      "private": false,
      "media_count": 69,
      "photos_count": 0,
      "videos_count": 69
    },
    {
      "id": "kwvfk6o",
      "title": "Fashion",
      "description": "",
      "private": false,
      "media_count": 159,
      "photos_count": 142,
      "videos_count": 17
    },
    {
      "id": "9ok9tyl",
      "title": "Fitness",
      "description": "",
      "private": false,
      "media_count": 127,
      "photos_count": 77,
      "videos_count": 50
    },
    {
      "id": "0apgfsq",
      "title": "Music",
      "description": "",
      "private": false,
      "media_count": 179,
      "photos_count": 133,
      "videos_count": 46
    },
    {
      "id": "k1fo3bm",
      "title": "Walls",
      "description": "",
      "private": false,
      "media_count": 179,
      "photos_count": 173,
      "videos_count": 6
    },
    {
      "id": "ptuoors",
      "title": "Doctors",
      "description": "",
      "private": false,
      "media_count": 69,
      "photos_count": 53,
      "videos_count": 16
    },
    {
      "id": "dvgfira",
      "title": "Cars",
      "description": "",
      "private": false,
      "media_count": 99,
      "photos_count": 80,
      "videos_count": 19
    },
    {
      "id": "5jjnkjn",
      "title": "Lotus Flowers",
      "description": "",
      "private": false,
      "media_count": 94,
      "photos_count": 86,
      "videos_count": 8
    },
    {
      "id": "allumm5",
      "title": "Pattern Videos",
      "description": "",
      "private": false,
      "media_count": 32,
      "photos_count": 0,
      "videos_count": 32
    },
    {
      "id": "vc9bvmi",
      "title": "Noir",
      "description": "",
      "private": false,
      "media_count": 310,
      "photos_count": 271,
      "videos_count": 39
    },
    {
      "id": "toxvsbh",
      "title": "Houses",
      "description": "",
      "private": false,
      "media_count": 89,
      "photos_count": 75,
      "videos_count": 14
    },
    {
      "id": "u5o7nq1",
      "title": "Sunsets",
      "description": "",
      "private": false,
      "media_count": 154,
      "photos_count": 124,
      "videos_count": 30
    },
    {
      "id": "gfewkl1",
      "title": "Dark Blue",
      "description": "",
      "private": false,
      "media_count": 65,
      "photos_count": 54,
      "videos_count": 11
    },
    {
      "id": "u1whmrx",
      "title": "Design",
      "description": "",
      "private": false,
      "media_count": 79,
      "photos_count": 59,
      "videos_count": 20
    },
    {
      "id": "jfgzzl3",
      "title": "Passport to Mexico",
      "description": "",
      "private": false,
      "media_count": 94,
      "photos_count": 84,
      "videos_count": 10
    },
    {
      "id": "rgpt3mm",
      "title": "Bartenders",
      "description": "",
      "private": false,
      "media_count": 65,
      "photos_count": 49,
      "videos_count": 16
    },
    {
      "id": "h6yi0q1",
      "title": "Tourists",
      "description": "",
      "private": false,
      "media_count": 119,
      "photos_count": 94,
      "videos_count": 25
    },
    {
      "id": "cfuxoe7",
      "title": "Money",
      "description": "",
      "private": false,
      "media_count": 67,
      "photos_count": 46,
      "videos_count": 21
    },
    {
      "id": "alttuky",
      "title": "The Sea",
      "description": "",
      "private": false,
      "media_count": 122,
      "photos_count": 91,
      "videos_count": 31
    },
    {
      "id": "obz4udy",
      "title": "Cozy Home",
      "description": "",
      "private": false,
      "media_count": 127,
      "photos_count": 106,
      "videos_count": 21
    },
    {
      "id": "otnofqv",
      "title": "Art",
      "description": "",
      "private": false,
      "media_count": 92,
      "photos_count": 73,
      "videos_count": 19
    },
    {
      "id": "hoxyyjd",
      "title": "Computers",
      "description": "",
      "private": false,
      "media_count": 70,
      "photos_count": 57,
      "videos_count": 13
    },
    {
      "id": "m57cfh9",
      "title": "Romantic",
      "description": "",
      "private": false,
      "media_count": 92,
      "photos_count": 75,
      "videos_count": 17
    },
    {
      "id": "vzdsnyi",
      "title": "Textiles",
      "description": "",
      "private": false,
      "media_count": 83,
      "photos_count": 61,
      "videos_count": 22
    }
  ],
  "total_results": 726,
  "next_page": "https://api.pexels.com/v1/collections/featured/?page=2&per_page=80"
}
